{
  "title": "Remove an NFT from the Authentic NFT Registry",
  "description": "Someone requested to remove an NFT from the Authentic NFT Registry",
  "rulingOptions": {
    "titles": [
      "Yes, Remove It",
      "No, Don't Remove It"
    ],
    "descriptions": [
      "Select this if you think the NFT does not comply with the required criteria and should be removed.",
      "Select this if you think the NFT complies with the required criteria and should not be removed."
    ]
  },
  "category": "Curated Lists",
  "question": "Does the NFT comply with the required criteria?",
  "fileURI": "/ipfs/QmQyEgs7r3TnBZtQaRENjfBVPCJsPWXAj3JrN8dCbsyHjQ/policy.pdf",
  "evidenceDisplayInterfaceURI": "/ipfs/QmNhJXtMrxeJu4fpchPruGrL93bm2M4VmDZ8pj4x6FqnHJ/index.html",
  "metadata": {
    "tcrTitle": "Authentic NFT Registry",
    "tcrDescription": "A list of authentic NFTs",
    "columns": [
      {
        "label": "Thumbnail",
        "description": "The NFT's thumbnail",
        "type": "image",
        "isIdentifier": false
      },
      {
        "label": "Name",
        "description": "Official name of the NFT",
        "type": "text",
        "isIdentifier": true
      },
      {
        "label": "Author",
        "description": "Author's name",
        "type": "text",
        "isIdentifier": true
      },
      {
        "label": "Collection",
        "description": "The collection's address",
        "type": "address",
        "isIdentifier": true
      },
      {
        "label": "Token ID",
        "description": "The token ID",
        "type": "number",
        "isIdentifier": true
      },
      {
        "label": "Chain ID",
        "description": "The ID of the chain on which the NFT resides",
        "type": "number",
        "isIdentifier": true
      },
      {
        "label": "Webpage",
        "description": "The NFT's canonical webpage",
        "type": "link",
        "isIdentifier": false
      },
      {
        "label": "Proof",
        "description": "Optional proof of authenticity",
        "type": "file",
        "allowedFileTypes": "pdf txt"
      },
      {
        "label": "Attribution",
        "description": "Optional attribution",
        "type": "long text"
      }
    ],
    "itemName": "NFT",
    "itemNamePlural": "NFTs",
    "logoURI": "/ipfs/QmVVBTtSvdvh6MyJr9XWgfFigvpxw3uG8wEcFTfdujjBai/kmanr.png",
    "requireRemovalEvidence": true,
    "isTCRofTCRs": false,
    "relTcrDisabled": true
  }
}
