{
  "title": "Remove an NFT collection from the Authentic NFT Collection Registry",
  "description": "Someone requested to remove an NFT collection from the Authentic NFT Collection Registry",
  "rulingOptions": {
    "titles": [
      "Yes, Remove It",
      "No, Don't Remove It"
    ],
    "descriptions": [
      "Select this if you think the NFT collection does not comply with the required criteria and should be removed.",
      "Select this if you think the NFT collection complies with the required criteria and should not be removed."
    ]
  },
  "category": "Curated Lists",
  "question": "Does the NFT collection comply with the required criteria?",
  "fileURI": "/ipfs/QmQyEgs7r3TnBZtQaRENjfBVPCJsPWXAj3JrN8dCbsyHjQ/policy.pdf",
  "evidenceDisplayInterfaceURI": "/ipfs/QmNhJXtMrxeJu4fpchPruGrL93bm2M4VmDZ8pj4x6FqnHJ/index.html",
  "metadata": {
    "tcrTitle": "Authentic NFT Collection Registry",
    "tcrDescription": "A list of authentic NFT collections",
    "columns": [
      {
        "label": "Thumbnail",
        "description": "A thumbnail representative of the collection",
        "type": "image",
        "isIdentifier": false
      },
      {
        "label": "Name",
        "description": "Official name of the collection",
        "type": "text",
        "isIdentifier": true
      },
      {
        "label": "Author",
        "description": "Author's name if relevant",
        "type": "text",
        "isIdentifier": true
      },
      {
        "label": "Collection",
        "description": "The collection's address",
        "type": "address",
        "isIdentifier": true
      },
      {
        "label": "Chain ID",
        "description": "The ID of the chain on which the collection resides",
        "type": "number",
        "isIdentifier": true
      },
      {
        "label": "Webpage",
        "description": "The collection's canonical webpage",
        "type": "link",
        "isIdentifier": false
      },
      {
        "label": "Proof",
        "description": "Optional proof of authenticity",
        "type": "file",
        "allowedFileTypes": "pdf txt"
      },
      {
        "label": "Attribution",
        "description": "Optional attribution",
        "type": "long text"
      }
    ],
    "itemName": "NFT collection",
    "itemNamePlural": "NFT collections",
    "logoURI": "/ipfs/QmV2vTfULSHwV34y4i9WDYCHy5dyBtfivYyZQKvR6botRq/kmancr.png",
    "requireRemovalEvidence": true,
    "isTCRofTCRs": false,
    "relTcrDisabled": true
  }
}
